DoeRSample
…
## Create a subsets of data that I may want to use
sum_50 <- sum %>% ## 50 most populated counties
  filter(pop_rank > 189 & !is.na(total_pop))

At this point, the data set looks like this:

# A tibble: 241 × 23
   county_name      county_cap_sum county_cap_mean county_cap_n county_home_n
   <fct>                     <dbl>           <dbl>        <int>         <int>
 1 ANDERSON COUNTY            1367            97.6           14             1
 2 ANDREWS COUNTY              698           116.             6             1
 3 ANGELINA COUNTY            3924           103.            38             2
 4 ARANSAS COUNTY              550            78.6            7             2
 5 ARCHER COUNTY               256            51.2            5             0
 6 ARMSTRONG COUNTY             51            25.5            2             1
 7 ATASCOSA COUNTY            1111            69.4           16             3
 8 AUSTIN COUNTY              1071            76.5           14             1
 9 BAILEY COUNTY               186            46.5            4             0
10 BANDERA COUNTY              414           104.             4             0
# ℹ 231 more rows
# ℹ 18 more variables: county_center_n <int>, perc_home <dbl>,
#   perc_white <dbl>, perc_black <dbl>, perc_hisp <dbl>, total_pop <dbl>,
#   unemployment_rate <dbl>, poverty_rate <dbl>, open_wknd <dbl>,
#   open_aft_6 <dbl>, urban_rural <fct>, county_cap_home_sum <dbl>,
#   county_cap_center_sum <dbl>, pop04 <dbl>, perc_cap_home <dbl>,
#   pop_rank <dbl>, perc_pop04_cap <dbl>, total_pop1000 <dbl>
…
